Sex,Equipment,Division,WeightClassKg,Name,BodyweightKg,Best3SquatKg,Best3BenchKg,Best3DeadliftKg,TotalKg,Event,Place
F,Raw,Amateur Open,56,Kayla Garretson,55.07,,54.43,,54.43,B,1
F,Raw,Amateur Open,52,Shannon Schriver,50.62,86.18,58.97,140.61,285.76,SBD,1
F,Wraps,Amateur Open,52,Azela Zarate,51.44,83.91,40.82,117.93,242.67,SBD,1
F,Raw,Amateur Open,56,Michele Sullivan,55.07,113.4,61.23,129.27,303.91,SBD,1
F,Raw,Amateur Submaster,56,Jaime Goldberg,53.61,102.06,56.7,102.06,260.82,SBD,2
F,Raw,Amateur Submaster,56,Rachel L. Isaacs,54.2,81.65,61.23,131.54,274.42,SBD,1
F,Wraps,Amateur Junior 20-23,56,Bethann Kiely,52.8,86.18,36.29,102.06,224.53,SBD,1
F,Wraps,Amateur Open,56,Casey Garofalo,53.43,70.31,36.29,97.52,204.12,SBD,2
F,Wraps,Amateur Open,56,Drew Bedor,52.16,90.72,45.36,97.52,233.6,SBD,1
F,Single-ply,Amateur Teen 16-17,56,Gabby Englert,54.88,86.18,52.16,102.06,240.4,SBD,1
F,Raw,Amateur Master 75-79,60,Audrey Donellan,59.6,79.38,40.82,124.74,244.94,SBD,1
F,Single-ply,Amateur Teen 14-15,60,Tara Geldhauser,56.97,90.72,58.97,111.13,260.82,SBD,1
F,Raw,Amateur Junior 20-23,67.5,Karly Covelli,64.77,68.04,45.36,106.59,219.99,SBD,1
F,Raw,Amateur Open,67.5,Samantha Rothberg,65.77,83.91,49.9,127.01,260.82,SBD,2
F,Raw,Amateur Open,67.5,Christina Consigli,62.51,104.33,52.16,113.4,269.89,SBD,1
F,Wraps,Amateur Open,67.5,Ann Cassell,65.86,115.67,77.11,151.95,344.73,SBD,2
F,Wraps,Amateur Open,67.5,Maya Levin,66.32,122.47,74.84,165.56,362.87,SBD,1
F,Wraps,Pro Junior 20-23,67.5,Leah Bamman,66.77,122.47,74.84,142.88,340.19,SBD,1
F,Wraps,Pro Open,67.5,Leah Bamman,66.77,122.47,74.84,142.88,340.19,SBD,1
F,Single-ply,Amateur Teen 16-17,67.5,Gianna Garman,65.23,136.08,90.72,106.59,333.39,SBD,2
F,Single-ply,Amateur Teen 16-17,67.5,Jeryn Davis,64.32,142.88,86.18,181.44,410.5,SBD,1
F,Raw,Amateur Master 50-54,75,Jean Dlugosh,74.57,77.11,49.9,117.93,244.94,SBD,1
F,Raw,Amateur Open,75,Eun Bee Ko,70.58,136.08,72.57,133.81,342.46,SBD,1
F,Raw,Amateur Submaster,75,Alicia Alvarez,73.94,72.57,49.9,136.08,258.55,SBD,1
F,Wraps,Amateur Junior 20-23,75,Samantha Crepin,73.75,92.99,49.9,113.4,256.28,SBD,2
F,Wraps,Amateur Master 40-44,75,Kathy Kazmierski,70.94,104.33,63.5,136.08,303.91,SBD,1
F,Wraps,Amateur Open,75,Jennifer Williams,72.67,133.81,61.23,129.27,324.32,SBD,1
F,Raw,Amateur Junior 20-23,82.5,Ashley Dancoe,81.47,99.79,47.63,127.01,274.42,SBD,1
F,Raw,Amateur Open,82.5,Randi A Alvarado,79.29,104.33,68.04,136.08,308.44,SBD,1
F,Raw,Amateur Open,90+,Christine Smith,115.03,170.1,70.31,185.97,426.38,SBD,1
M,Wraps,Amateur Teen 16-17,56,Joe Ruoto,52.48,111.13,65.77,124.74,301.64,SBD,1
M,Wraps,Amateur Teen 16-17,60,Syed Hashmi,59.24,124.74,77.11,163.29,365.14,SBD,1
M,Raw,Amateur Youth 12,67.5,Max Berger,64.23,90.72,54.43,102.06,247.21,SBD,1
M,Wraps,Amateur Junior 20-23,67.5,Mateusz Atlasik,67.49,158.76,106.59,224.53,489.88,SBD,2
M,Wraps,Amateur Junior 20-23,67.5,Tyler Golick,66.5,181.44,129.27,197.31,508.02,SBD,1
M,Wraps,Amateur Open,67.5,Michael Chiarantano,65.95,174.63,86.18,219.99,480.81,SBD,2
M,Wraps,Amateur Open,67.5,Jon Maneen,65.95,195.04,145.15,201.85,542.04,SBD,1
M,Wraps,Amateur Open,75,Edwin Burgos,72.85,170.1,120.2,204.12,494.42,SBD,2
M,Wraps,Amateur Teen 18-19,75,Edwin Burgos,72.85,170.1,120.2,204.12,494.42,SBD,1
M,Single-ply,Amateur Teen 16-17,75,Daniel O'Neil,72.12,158.76,92.99,172.37,424.11,SBD,1
M,Single-ply,Amateur Teen 18-19,75,Ben Jackson,73.94,188.24,113.4,183.7,485.34,SBD,1
M,Raw,Amateur Teen 16-17,82.5,Gianmarco Castronovo,80.47,154.22,99.79,192.78,446.79,SBD,1
M,Single-ply,Amateur Teen 16-17,82.5,Chaz Scheideler,80.56,172.37,120.2,226.8,519.36,SBD,2
M,Single-ply,Amateur Teen 16-17,82.5,Billy Geldhauser,80.83,199.58,136.08,226.8,562.45,SBD,1
M,Raw,Amateur Teen 16-17,90,Christian Chandler,89.18,167.83,99.79,201.85,469.47,SBD,1
M,Single-ply,Amateur Teen 16-17,90,Connor Kurpat,83.91,156.49,104.33,167.83,428.64,SBD,1
M,Wraps,Amateur Teen 16-17,110,Patryk Reichert,101.51,163.29,129.27,195.04,487.61,SBD,1
F,Raw,Pro Open,60,Noriko Kariya,57.15,127.01,56.7,140.61,324.32,SBD,1
M,Raw,Amateur Open,67.5,Cris Racelis,64.05,154.22,106.59,213.19,474,SBD,1
M,Raw,Amateur Submaster,67.5,John Marmora,64.5,97.52,74.84,158.76,331.12,SBD,1
M,Raw,Amateur Junior 20-23,75,Marc Bruggemann,71.94,142.88,88.45,192.78,424.11,SBD,2
M,Raw,Amateur Junior 20-23,75,Eric Heckelmann,71.85,192.78,131.54,222.26,546.58,SBD,1
M,Raw,Amateur Open,75,Kenton Hughes,74.48,176.9,120.2,201.85,498.95,SBD,4
M,Raw,Amateur Open,75,Joshua Teves,74.57,161.03,115.67,226.8,503.49,SBD,3
M,Raw,Amateur Open,75,Jacob Harrison,72.85,199.58,124.74,226.8,551.11,SBD,2
M,Raw,Amateur Open,75,Christopher Connors,74.39,195.04,131.54,263.08,589.67,SBD,1
M,Raw,Amateur Open,75,Kevin Vallerie,74.84,165.56,90.72,185.97,442.25,SBD,6
M,Wraps,Amateur Junior 20-23,75,Daniel Bulay,74.66,172.37,136.08,222.26,530.7,SBD,1
M,Wraps,Amateur Open,75,Nick Zemlachenko,73.48,213.19,158.76,226.8,598.74,SBD,1
M,Raw,Amateur Junior 20-23,82.5,Dwardly Edouard,79.92,208.65,158.76,258.55,625.96,SBD,1
M,Raw,Amateur Master 40-44,82.5,John Gibbs,80.2,138.35,102.06,181.44,421.84,SBD,1
M,Raw,Amateur Open,82.5,Michael Angolia,82.01,129.27,88.45,127.01,344.73,SBD,3
M,Raw,Amateur Open,82.5,Dylan Gutheil,82.1,188.24,127.01,208.65,523.9,SBD,2
M,Raw,Amateur Open,82.5,Travis Rogers #1,80.1,242.67,158.76,278.96,680.39,SBD,1
M,Wraps,Amateur Junior 20-23,82.5,Timothy Maher,79.47,172.37,120.2,206.38,498.95,SBD,2
M,Wraps,Amateur Junior 20-23,82.5,James Mapp,78.83,226.8,149.69,288.03,664.51,SBD,1
M,Wraps,Amateur Master 45-49,82.5,Matt Kovacs,81.65,185.97,138.35,204.12,528.44,SBD,1
M,Wraps,Amateur Open,82.5,Angel Luis Cruz III,80.38,161.03,97.52,229.06,487.61,SBD,9
M,Wraps,Amateur Open,82.5,Andrew Lane,79.83,170.1,122.47,206.38,498.95,SBD,8
M,Wraps,Amateur Open,82.5,James Posillico,81.74,195.04,115.67,210.92,521.63,SBD,7
M,Wraps,Amateur Open,82.5,Ernest Peralta,77.84,188.24,138.35,217.72,544.31,SBD,6
M,Wraps,Amateur Open,82.5,Corey Morenz,80.74,192.78,124.74,231.33,548.85,SBD,5
M,Wraps,Amateur Open,82.5,Joseph Shedosky,79.56,204.12,142.88,210.92,557.92,SBD,3
M,Wraps,Amateur Open,82.5,Luis Guevara,79.29,206.38,142.88,210.92,560.19,SBD,2
M,Wraps,Amateur Open,82.5,Danny Padilla,80.29,195.04,142.88,226.8,564.72,SBD,1
M,Single-ply,Amateur Open,82.5,Chris DeNardo,81.28,174.63,142.88,226.8,544.31,SBD,2
M,Single-ply,Amateur Open,82.5,Lee B. Gruensfelder,82.1,192.78,124.74,229.06,546.58,SBD,1
M,Multi-ply,Pro Open,90,Brett Burton,87.18,256.28,145.15,210.92,612.35,SBD,2
M,Raw,Amateur Junior 20-23,90,Zachary Einhorn,87.45,163.29,136.08,213.19,512.56,SBD,2
M,Raw,Amateur Junior 20-23,90,Casey Poulsen,88.72,183.7,149.69,272.16,605.55,SBD,1
M,Raw,Amateur Open,90,Nico Tirado,86.64,188.24,97.52,195.04,480.81,SBD,6
M,Raw,Amateur Open,90,Chris Muniz,88.81,167.83,151.95,249.48,569.26,SBD,4
M,Raw,Amateur Open,90,Brandon Densmore,88,231.33,147.42,233.6,612.35,SBD,3
M,Raw,Amateur Open,90,Kyle Poulsen,89.36,229.06,149.69,258.55,637.3,SBD,2
M,Raw,Amateur Open,90,Carl Logerie,89.54,226.8,158.76,272.16,657.71,SBD,1
M,Wraps,Amateur Junior 20-23,90,Christopher Cutler,86.91,199.58,133.81,235.87,569.26,SBD,1
M,Wraps,Amateur Open,90,Ariel Francisco,89.99,176.9,138.35,238.14,553.38,SBD,4
M,Wraps,Amateur Open,90,Roy Somers,88.9,244.94,136.08,231.33,612.35,SBD,3
M,Wraps,Amateur Open,90,Marlon Taduran,87.72,222.26,140.61,265.35,628.23,SBD,2
M,Wraps,Amateur Open,90,Damir Hadzalic,88.45,249.48,154.22,231.33,635.03,SBD,1
M,Wraps,Amateur Teen 14-15,90,Ryan Jones,85.46,147.42,79.38,183.7,410.5,SBD,1
M,Wraps,Amateur Junior 20-23,100,Neil Morgan,91.26,181.44,106.59,229.06,517.1,SBD,2
M,Wraps,Amateur Submaster,110,Courtney Woodhouse,101.15,206.38,147.42,294.84,648.64,SBD,1
M,Raw,Amateur Master 55-59,110,Alex V Hernadez,104.69,,138.35,,138.35,B,1
M,Raw,Pro Master 45-49,90,James P Pruszinski,89.54,,192.78,,192.78,B,1
M,Single-ply,Amateur Submaster,125,Joseph Rybaruk Jr,122.56,,281.23,,281.23,B,1
M,Wraps,Pro Junior 20-23,75,Anthony Creatura,74.57,229.06,149.69,244.94,623.69,SBD,1
M,Raw,Amateur Open,100,Matthew Frank Medaglia,99.16,165.56,138.35,274.42,578.33,SBD,3
M,Raw,Amateur Open,100,Nick Poli,98.16,233.6,167.83,267.62,669.05,SBD,1
M,Raw,Amateur Open,100,Kamar Gainey,96.43,240.4,167.83,254.01,662.24,SBD,2
M,Raw,Pro Open,100,Jodi Tolomieri,97.52,260.82,210.92,299.37,771.11,SBD,1
M,Wraps,Amateur Junior 20-23,100,Alex Slapkowski,99.52,190.51,124.74,224.53,539.77,SBD,1
M,Wraps,Amateur Open,100,Chris Giori,97.61,195.04,113.4,204.12,512.56,SBD,4
M,Wraps,Amateur Open,100,Donald Thompsett,98.25,197.31,136.08,204.12,537.51,SBD,3
M,Wraps,Amateur Open,100,Luis Vigo,97.98,192.78,122.47,249.48,564.72,SBD,2
M,Wraps,Pro Master 40-44,100,Derrick Benjamin,96.34,258.55,161.03,306.17,725.75,SBD,1
M,Wraps,Pro Master 45-49,100,Joey Rodriguez,91.26,176.9,195.04,274.42,646.37,SBD,1
M,Wraps,Pro Open,100,Benjamin Kane,99.52,233.6,176.9,272.16,682.66,SBD,1
M,Raw,Amateur Master 45-49,110,James T Wilson,104.05,149.69,104.33,199.58,453.59,SBD,1
M,Raw,Amateur Open,110,Andrew Obergfell,104.33,199.58,147.42,233.6,580.6,SBD,2
M,Wraps,Amateur Submaster,110,Brian Grzybowski,105.51,213.19,136.08,233.6,582.87,SBD,2
M,Wraps,Police-Fire Amateur Master 45-49,110,John Lockwood,107.77,215.46,147.42,258.55,621.42,SBD,1
M,Wraps,Pro Junior 20-23,110,Carlos Hazoury,109.95,272.16,172.37,272.16,716.68,SBD,2
M,Wraps,Pro Junior 20-23,110,Nick Rice,107.86,294.84,183.7,294.84,773.37,SBD,1
M,Wraps,Pro Submaster,110,Richard J Sevigney III,108.32,215.46,142.88,219.99,578.33,SBD,1
M,Wraps,Pro Open,110,Richard J Sevigney III,108.32,215.46,142.88,219.99,578.33,SBD,2
M,Wraps,Pro Open,110,Ty Flaherty,100.97,226.8,151.95,229.06,607.81,SBD,1
M,Multi-ply,Amateur Open,125,Joseph Rybaruk Jr,122.56,310.71,281.23,226.8,818.73,SBD,1
M,Multi-ply,Pro Open,125,Jason Veach,117.21,371.95,274.42,283.5,929.86,SBD,1
M,Multi-ply,Pro Master 55-59,125,Skip Skiba,122.74,319.78,240.4,260.82,821,SBD,1
M,Raw,Amateur Master 45-49,125,Nick Asimakopoulos,124.56,242.67,188.24,276.69,707.6,SBD,1
M,Raw,Military Amateur Open,125,Kyle Winters,122.02,251.74,170.1,292.57,714.41,SBD,1
M,Wraps,Amateur Junior 20-23,125,Jonathan Gonzalez,119.2,267.62,172.37,317.51,757.5,SBD,1
M,Wraps,Amateur Master 40-44,125,Christopher Jones,121.93,283.5,179.17,285.76,748.43,SBD,1
M,Wraps,Amateur Open,125,James Clairmont,123.2,274.42,192.78,283.5,750.7,SBD,1
M,Wraps,Pro Open,125,Justin Conte,116.75,317.51,204.12,317.51,839.15,SBD,1
M,Wraps,Military Amateur Open,125,JD Coleman,116.94,231.33,124.74,265.35,621.42,SBD,1
M,Wraps,Police Amateur Open,125,Izzie Machado,115.21,233.6,192.78,249.48,675.85,SBD,1
M,Wraps,Amateur Open,140,Jerald Rogers,137.44,310.71,181.44,274.42,766.57,SBD,1
M,Wraps,Amateur Open,140+,Dave Soffen,186.88,308.44,145.15,274.42,728.02,SBD,1
M,Raw,Amateur Open,100,Jeffrey T Durante,98.16,,167.83,204.12,371.95,BD,1
M,Raw,Pro Open,100,John Risitano,95.35,,192.78,272.16,464.93,BD,1
M,Raw,Amateur Junior 20-23,110,Thomas Mcmanus,108.23,,158.76,265.35,424.11,BD,1
M,Raw,Pro Master 50-54,125,Tom Gangi,123.47,,129.27,199.58,328.85,BD,1
M,Raw,Amateur Master 65-69,140,Mike Chapman,125.65,,117.93,145.15,263.08,BD,1
M,Raw,Military Amateur Open,140,Joshua Luis,134.63,,190.51,263.08,453.59,BD,1
F,Raw,Pro Open,67.5,Melissa Falzarano,65.05,,61.23,,61.23,B,1
F,Wraps,Amateur Open,67.5,Cara Gibson,67.49,117.93,56.7,156.49,331.12,SBD,3
F,Raw,Amateur Junior 20-23,75,Lillian Feygin,70.4,104.33,54.43,113.4,272.16,SBD,2
F,Raw,Amateur Junior 20-23,75,Katie Maier,73.57,115.67,79.38,138.35,333.39,SBD,1
F,Wraps,Amateur Junior 20-23,75,Daniela C. Velez,72.3,147.42,61.23,167.83,376.48,SBD,1
M,Wraps,Amateur Teen 18-19,67.5,Charles Rodriguez,64.86,145.15,90.72,226.8,462.66,SBD,1
M,Raw,Amateur Open,75,Corey De Leon,71.4,145.15,86.18,226.8,458.13,SBD,5
M,Wraps,Amateur Submaster,75,Noel Arzadon,69.04,163.29,102.06,217.72,483.08,SBD,1
M,Raw,Pro Master 60-64,82.5,Robert Feldman,80.74,158.76,115.67,206.38,480.81,SBD,1
M,Wraps,Amateur Open,82.5,Jonathan C Cueto,80.83,183.7,142.88,231.33,557.92,SBD,4
M,Multi-ply,Pro Open,90,Alex Bertolino,87.54,317.51,179.17,240.4,737.09,SBD,1
M,Raw,Amateur Open,90,Joseph Thompsett,87,176.9,131.54,199.58,508.02,SBD,5
M,Wraps,Amateur Submaster,90,Eddy Germain,89.09,217.72,,272.16,,SBD,DQ
M,Multi-ply,Amateur Open,100,Jarred R Buchanan,97.43,233.6,181.44,201.85,616.89,SBD,1
M,Wraps,Amateur Open,100,James Brennan,94.08,263.08,149.69,299.37,712.14,SBD,1
M,Wraps,Amateur Submaster,100,Thomas Magill,99.61,181.44,172.37,226.8,580.6,SBD,1
M,Raw,Amateur Open,110,Rob Synnott,106.41,210.92,185.97,210.92,607.81,SBD,1
M,Wraps,Amateur Master 40-44,125,Martin Witt III,114.31,188.24,154.22,272.16,614.62,SBD,2
M,Raw,Pro Open,140,Ryan Barletto,133.27,260.82,260.82,294.84,816.47,SBD,1
M,Wraps,Amateur Junior 20-23,140,William Blazeski,139.71,260.82,165.56,254.01,680.39,SBD,1
M,Raw,Amateur Teen 14-15,110,Ezekiel Azzaretti,102.42,,,229.06,229.06,D,1
