Name,Sex,Event,Equipment,Division,BodyweightKg,WeightClassKg,Squat1Kg,Squat2Kg,Squat3Kg,Best3SquatKg,Bench1Kg,Bench2Kg,Bench3Kg,Best3BenchKg,Deadlift1Kg,Deadlift2Kg,Deadlift3Kg,Best3DeadliftKg,TotalKg,Place,AgeClass
Aimee Smillie,F,SBD,Raw,F-C-Open,55,57,110,115,122.5,122.5,65,-67.5,-67.5,65,130,135,140,140,327.5,1,0-22.5
Viki Craig,F,SBD,Raw,F-C-Open,62.3,63,-102.5,102.5,105,105,55,57.5,60,60,130,140,-150,140,305,1,0-22.5
Anneli Ritari-Stewart,F,SBD,Raw,F-C-Open,58.3,63,95,101,106,106,50,52.5,-55,52.5,122.5,-130,-130,122.5,281,2,39.5-48.5
Alice Francis-Freeman,F,SBD,Raw,F-C-Open,60.5,63,95,101,-110,101,47.5,52.5,55,55,110,115,120,120,276,3,0-17.5
Katie Hetherington,F,SBD,Raw,F-C-Open,61.6,63,75,82.5,-87.5,82.5,45,47.5,-50,47.5,92.5,102.5,-105,102.5,232.5,4,0-22.5
Sophie Barringer,F,SBD,Raw,F-C-Open,70.8,72,115,122.5,127.5,127.5,50,-55,55,55,155,165,167.5,167.5,350,1,0-22.5
Lee Helstrom,F,SBD,Raw,F-C-Open,66.7,72,-100,-100,100,100,75,-78,78,78,152.5,157.5,-162.5,157.5,335.5,2,0-22.5
Nicola Harcus,F,SBD,Raw,F-C-Open,68.8,72,-80,80,85,85,50,-55,55,55,115,125,-130,125,265,3,39.5-48.5
Corin Marjoribanks,F,SBD,Raw,F-C-Open,65.7,72,55,62.5,70,70,40,42.5,-45,42.5,75,85,95,95,207.5,4,0-22.5
Cathy Macaslan,F,SBD,Raw,F-C-Open,66.9,72,55,57.5,60,60,32.5,35,36,36,85,92.5,-101,92.5,188.5,5,60-69
Claire Tocher,F,SBD,Raw,F-C-Open,76.6,84,120,125,130,130,-70,72.5,75,75,145,155,162.5,162.5,367.5,1,0-22.5
Katie Willow Garvey,F,SBD,Raw,F-C-Open,80.8,84,115,-125,127.5,127.5,60,65,-67.5,65,137.5,142.5,150,150,342.5,2,0-22.5
Omar Khan,M,SBD,Raw,M-C-Open,64.6,66,-160,-160,181,181,95,105,112.5,112.5,185,200,210,210,503.5,1,0-22.5
Stuart Duncan,M,SBD,Raw,M-C-Open,64.6,66,160,170,-182.5,170,90,100,110,110,170,190,215,215,495,2,0-22.5
Michael Morris,M,SBD,Raw,M-C-Open,65.8,66,140,147.5,155,155,100,105,-110,105,190,200,-210,200,460,3,0-22.5
Mathew Laird,M,SBD,Raw,M-C-Open,73.4,74,160,170,180,180,120,127.5,-132.5,127.5,175,-195,-195,175,482.5,1,0-22.5
Peter Bonner,M,SBD,Raw,M-C-Open,71,74,-130,130,137.5,137.5,100,105,-110,105,150,155,160,160,402.5,2,0-22.5
James Dugdale,M,SBD,Raw,M-C-Open,82,83,197.5,207.5,-215,207.5,112.5,120,125,125,217.5,230,,230,562.5,1,0-22.5
Stu Johnston,M,SBD,Raw,M-C-Open,82.6,83,175,185,190,190,130,135,140,140,207.5,217.5,-227.5,217.5,547.5,2,0-22.5
Struan Urquhart,M,SBD,Raw,M-C-Open,81.4,83,180,190,-200,190,135,145,155,155,180,-190,190,190,535,3,0-22.5
Jodi Mullen,M,SBD,Raw,M-C-Open,82.4,83,170,180,190,190,90,95,-100,95,200,215,225,225,510,4,0-22.5
Clifford Halgryn,M,SBD,Raw,M-C-Open,82.8,83,150,160,-165,160,90,102.5,,102.5,230,-245,-245,230,492.5,5,0-22.5
Sebastian Wilson,M,SBD,Raw,M-C-Open,79,83,140,150,155,155,105,112.5,117.5,117.5,180,190,202.5,202.5,475,6,0-22.5
Stuart Vettriano,M,SBD,Raw,M-C-Open,82,83,145,155,-165,155,95,105,110,110,165,180,190,190,455,7,0-22.5
Diego Cruz Garcia,M,SBD,Raw,M-C-Open,78.8,83,-135,135,147.5,147.5,85,95,-105,95,170,185,195,195,437.5,8,0-22.5
David Litchfield,M,SBD,Raw,M-C-Open,82.6,83,-135,135,-145,135,120,-130,-130,120,177.5,,,177.5,432.5,9,39.5-48.5
Fraser Mccallum,M,SBD,Raw,M-C-Open,79.4,83,140,150,160,160,90,100,-105,100,155,165,-175,165,425,10,0-22.5
William Borthwick,M,SBD,Raw,M-C-Open,81.2,83,90,100,-105,100,80,85,-90,85,140,145,150,150,335,11,70-79
Graeme Lamont,M,SBD,Raw,M-C-Open,88,93,180,192.5,200,200,127.5,-132.5,,127.5,215,230,,230,557.5,1,0-22.5
Tom Barrack,M,SBD,Raw,M-C-Open,90,93,195,210,-215,210,125,-132.5,,125,200,220,,220,555,2,0-22.5
Paul Buchan,M,SBD,Raw,M-C-Open,92.4,93,180,190,-195,190,125,-132.5,,125,232.5,-242.5,,232.5,547.5,3,0-22.5
Robert Masson,M,SBD,Raw,M-C-Open,83.8,93,205,,,205,110,,,110,230,,,230,545,4,0-22.5
Gordon Dawtry,M,SBD,Raw,M-C-Open,90.6,93,-175,175,185,185,125,,,125,220,,,220,530,5,0-22.5
Graham Milliken,M,SBD,Raw,M-C-Open,92.2,93,-175,175,185,185,107.5,112.5,,112.5,-225,225,,225,522.5,6,0-22.5
Darren Whyte,M,SBD,Raw,M-C-Open,91.4,93,185,-200,200,200,100,-110,,100,215,-235,,215,515,7,0-22.5
William Brown #1,M,SBD,Raw,M-C-Open,87.4,93,165,170,-175,170,120,130,,130,180,,,180,480,8,0-22.5
Greg Stewart,M,SBD,Raw,M-C-Open,85.4,93,145,155,160,160,115,120,,120,180,190,,190,470,9,39.5-48.5
Aidan Mcckenzie,M,SBD,Raw,M-C-Open,92.2,93,150,-162.5,-162.5,150,-115,-130,,-115,-210,,,-210,,DQ,0-22.5
Joshua Batchelor,M,SBD,Raw,M-C-Open,102,105,220,230,,230,160,-170,,160,260,280,,280,670,1,0-22.5
Stephen Cumming,M,SBD,Raw,M-C-Open,99,105,205,-225,,205,140,-160,,140,230,255,,255,600,2,0-22.5
Reiss McCormick,M,SBD,Raw,M-C-Open,102,105,190,205,215,215,130,-140,,130,230,245,,245,590,3,0-22.5
Kieran Munro,M,SBD,Raw,M-C-Open,103,105,222.5,-230,230,230,130,-140,,130,225,-240,,225,585,4,0-22.5
Phil Salter,M,SBD,Raw,M-C-Open,101.8,105,190,-202.5,-205,190,115,-140,,115,-240,265,,265,570,5,0-22.5
Neil Cushnie,M,SBD,Raw,M-C-Open,99.4,105,205,-215,-215,205,115,-127.5,,115,215,222.5,,222.5,542.5,6,0-22.5
Nial Duncan,M,SBD,Raw,M-C-Open,96.6,105,170,185,-197.5,185,110,-122.5,,110,192.5,215,,215,510,7,0-22.5
John Soulsby,M,SBD,Raw,M-C-Open,104,105,170,180,190,190,100,107.5,,107.5,190,200,,200,497.5,8,0-22.5
Marc Keys,M,SBD,Raw,M-C-Open,114.4,120,260,270,280,280,190,200,,200,280,-290,,280,760,1,0-22.5
Conor Watson,M,SBD,Raw,M-C-Open,110,120,180,190,-195,190,130,-135,,130,200,215,,215,535,2,0-22.5
